<?xml version="1.0" encoding="utf-8"?>
<!-- Generator: Adobe Illustrator 21.0.2, SVG Export Plug-In . SVG Version: 6.00 Build 0)  -->
<svg version="1.1" id="Layer_1" xmlns="http://www.w3.org/2000/svg" xmlns:xlink="http://www.w3.org/1999/xlink" x="0px" y="0px"
	 viewBox="0 0 310.5 332.8" enable-background="new 0 0 310.5 332.8" xml:space="preserve">
<g>
	<path fill="#FFFFFF" d="M303.3,14.4c4,0,7.2-3.2,7.2-7.2c0-4-3.2-7.2-7.2-7.2h-73.4c-0.1,0-0.2,0-0.3,0H7.2C3.2,0,0,3.2,0,7.2
		c0,4,3.2,7.2,7.2,7.2H74v71h-2.9c-4,0-7.2,3.2-7.2,7.2c0,0.8,0.1,1.6,0.4,2.3H7.2c-4,0-7.2,3.2-7.2,7.2v187c0,4,3.2,7.2,7.2,7.2
		h148c4,0,7.2-3.2,7.2-7.2v-187c0-4-3.2-7.2-7.2-7.2H97c0.3-0.7,0.4-1.5,0.4-2.3c0-4-3.2-7.2-7.2-7.2h-1.8v-71h134.1v147.1h-2.9
		c-4,0-7.2,3.2-7.2,7.2c0,0.6,0.1,1.1,0.2,1.7h-20.9c-4,0-7.2,3.2-7.2,7.2c0,4,3.2,7.2,7.2,7.2h98.5v133.6H149.3
		c-4,0-7.2,3.2-7.2,7.2c0,4,3.2,7.2,7.2,7.2h148c4,0,7.2-3.2,7.2-7.2v-148c0-4-3.2-7.2-7.2-7.2h-51.6c0.1-0.5,0.2-1.1,0.2-1.7
		c0-4-3.2-7.2-7.2-7.2h-1.8V14.4H303.3z M148,109.3v172.6H14.4V109.3H148z M265.3,251.6c0-23.2-18.8-42-42-42c-23.2,0-42,18.8-42,42
		c0,23.2,18.8,42,42,42C246.5,293.6,265.3,274.7,265.3,251.6L265.3,251.6z M195.7,251.6c0-15.2,12.4-27.6,27.6-27.6
		c15.2,0,27.6,12.4,27.6,27.6c0,15.2-12.4,27.6-27.6,27.6C208.1,279.2,195.7,266.8,195.7,251.6L195.7,251.6z M40.4,251.2
		c0,4,3.2,7.2,7.2,7.2h66.2c4,0,7.2-3.2,7.2-7.2V140c0-4-3.2-7.2-7.2-7.2H47.7c-1.2,0-2.3,0.3-3.4,0.8c-2.3,1.2-4,3.6-4,6.4
		c0,0.1,0,0.1,0,0.1V251.2z M54.8,147.2h51.8V244H54.8V147.2z"/>
</g>
</svg>
